Hola soy Larisa hohoho :D 
<<<<<<< HEAD
OMGOMGOMG CRISTINA WHAT ARE U DOINGGGGG?
=======

Heyyyyyyyyyyyyy

Cojnom




Cerrando insidensia de jastel
>>>>>>> 375caec240c2028468586778f70a66a786652e96


This is something new then :d

